{
    "id": {
        "type": "int",
        "bigIncrements": true
    },
    "name": {
        "type": "string"
    },
    "email": {
        "type": "string",
        "unique": true,
        "nullable": true
    },
    "tel": {
        "type": "string",
        "unique": true,
        "nullable": true
    },
    "username": {
        "type": "string",
        "unique": true,
        "nullable": true
    },
    "email_verified_at": {
        "type": "timestamp",
        "nullable": true
    },
    "password": {
        "type": "string"
    },
    "code": {
        "type": "string",
        "nullable": true
    },
    "is_confirm": {
        "type": "string",
        "default": 0,
        "nullable": true
    },
    "rememberToken": {
        "type": "rememberToken",
        "name": false
    },
    "timestamps": {
        "type": "timestamps",
        "name": false
    }
}
